id,name,model_id:id,group_id:id,perm_read,perm_write,perm_create,perm_unlink
access_crm_target_sale_admin,crm.target.admin,model_crm_target,sales_team.group_sale_manager,1,1,1,1
access_crm_target_sale_see_own_document,crm.target.see.own.document,model_crm_target,sales_team.group_sale_salesman,1,0,0,0
access_crm_target_sale_see_all_document,crm.target.see.all.document,model_crm_target,sales_team.group_sale_salesman_all_leads,1,0,0,0
